[gd_scene load_steps=2 format=3 uid="uid://cqp7j3j50mlep"]

[ext_resource type="ArrayMesh" uid="uid://cp0ypgfkd5hhc" path="res://content/base/character/ryu/level1_ref_Plane_003.res" id="1_vddws"]

[node name="Root" type="Node3D"]

[node name="Plane_003" type="MeshInstance3D" parent="."]
transform = Transform3D(3.5, 0, 0, 0, 3.5, 0, 0, 0, 3.5, 0, 0, 0.0078125)
layers = 524288
instance_shader_parameters/base_color = Color(1, 0, 0, 1)
instance_shader_parameters/secondary_color = Color(0, 1, 0, 1)
instance_shader_parameters/tertiary_color = Color(0, 0, 1, 1)
mesh = ExtResource("1_vddws")
skeleton = NodePath("")
